Leucegene Normals
…
Variant Summary

Summary results for variants called by MINTIE on Leucegene normals.

summary_by_sample <- normals_results %>%
                        group_by(sample) %>%
                        summarise(variants = length(unique(variant_id)))
summary_by_class <- collate_vartypes(normals_results) %>%
                        group_by(class) %>%
                        summarise(variants = length(unique(variant_id))) %>%
                        mutate(fraction = variants / sum(variants))
print(summary_by_sample)

# A tibble: 23 x 2
   sample    variants
   <chr>        <int>
 1 SRX372044      181
 2 SRX372045      137
 3 SRX372046      213
 4 SRX372047      639
 5 SRX372048     1119
 6 SRX372049      143
 7 SRX372050      497
 8 SRX372051      449
 9 SRX372052      235
10 SRX372053       75
# … with 13 more rows
…
